{
    "type": "minecraft:crafting_shaped",
    "pattern": [
        " L ",
        "QSQ",
        " L "
    ],
    "key": {
        "L": {
            "item": "minecraft:lava_bucket"
        },
        "Q": {
            "item": "minecraft:quartz_pillar"
        },
        "S": {
            "item": "minecraft:stick"
        }
    },
    "result": {
        "item": "minecraft:blaze_rod"
    }
}
