{
    "type": "minecraft:crafting_shaped",
    "pattern": [
        "ttt",
        "tot",
        "ttt"
    ],
    "key": {
        "o": {
            "item": "minecraft:obsidian"
        },
        "t": {
            "item": "minecraft:ghast_tear"
        }
    },
    "result": {
        "item": "minecraft:crying_obsidian"
    }
}
