{
    "type": "minecraft:crafting_shaped",
    "pattern": [
        "^#^",
        "=x=",
        "^#^"
    ],
    "key": {
        "^": {
            "item": "minecraft:flint"
        },
        "#": {
            "item": "minecraft:obsidian"
        },
        "=": {
            "item": "minecraft:purpur_pillar"
        },
        "x": {
            "item": "minecraft:cyan_wool"
        }
    },
    "result": {
        "item": "minecraft:music_disc_ward"
    }
}
