{
    "type": "minecraft:crafting_shaped",
    "pattern": [
        "#"
    ],
    "key": {
        "#": {
            "item": "minecraft:prismarine"
        }
    },
    "result": {
        "item": "minecraft:prismarine_shard",
        "count": 4
    }
}
