﻿{
    "type": "crafting_shaped",
    "pattern": [
        "i i",
        " D ",
        "i i"
    ],
    "key": {
        "i": {
            "item": "minecraft:iron_ingot"
        },
        "D": {
            "item": "minecraft:damaged_anvil"
        }
    },
    "result": {
        "item": "minecraft:chipped_anvil"
    }
}
