{
    "type": "minecraft:crafting_shaped",
    "pattern": [
        "###",
        "#O#",
        "###"
    ],
    "key": {
        "#": {
            "item": "minecraft:coal_block"
        },
        "O": {
            "item": "minecraft:skeleton_skull"
        }
    },
    "result": {
        "item": "minecraft:wither_skeleton_skull"
    }
}
